<?xml version="1.0" encoding="UTF-8" standalone="no"?>
<!-- Created with Inkscape (http://www.inkscape.org/) -->

<svg
   xmlns:dc="http://purl.org/dc/elements/1.1/"
   xmlns:cc="http://creativecommons.org/ns#"
   xmlns:rdf="http://www.w3.org/1999/02/22-rdf-syntax-ns#"
   xmlns:svg="http://www.w3.org/2000/svg"
   xmlns="http://www.w3.org/2000/svg"
   xmlns:sodipodi="http://sodipodi.sourceforge.net/DTD/sodipodi-0.dtd"
   xmlns:inkscape="http://www.inkscape.org/namespaces/inkscape"
   width="17pt"
   height="17pt"
   viewBox="0 0 21.250001 21.25"
   id="svg2"
   version="1.1"
   inkscape:version="0.91 r13725"
   sodipodi:docname="info.svg"
   inkscape:export-filename="/home/h4ck3r/Documents/ManuelDuMo/manueldumo/versiontex/images/encarts/chattention.pdf"
   inkscape:export-xdpi="72"
   inkscape:export-ydpi="72">
  <defs
     id="defs4">
    <inkscape:perspective
       sodipodi:type="inkscape:persp3d"
       inkscape:vp_x="177.63636 : -336.83251 : 1"
       inkscape:vp_y="188.78056 : 123.04144 : 1"
       inkscape:vp_z="-581.97629 : 249.67899 : 1"
       inkscape:persp3d-origin="-539.34834 : -225.54551 : 1"
       id="perspective4154" />
  </defs>
  <sodipodi:namedview
     id="base"
     pagecolor="#ffffff"
     bordercolor="#666666"
     borderopacity="1.0"
     inkscape:pageopacity="0.0"
     inkscape:pageshadow="2"
     inkscape:zoom="7.9235294"
     inkscape:cx="7.6385718"
     inkscape:cy="25.750645"
     inkscape:document-units="px"
     inkscape:current-layer="g4233"
     showgrid="false"
     inkscape:window-width="1920"
     inkscape:window-height="1028"
     inkscape:window-x="0"
     inkscape:window-y="0"
     inkscape:window-maximized="1"
     units="pt" />
  <metadata
     id="metadata7">
    <rdf:RDF>
      <cc:Work
         rdf:about="">
        <dc:format>image/svg+xml</dc:format>
        <dc:type
           rdf:resource="http://purl.org/dc/dcmitype/StillImage" />
        <dc:title></dc:title>
      </cc:Work>
    </rdf:RDF>
  </metadata>
  <g
     inkscape:label="Calque 1"
     inkscape:groupmode="layer"
     id="layer1"
     transform="translate(0,-1031.1123)">
    <g
       id="g4275"
       transform="matrix(0.06689477,0,0,0.06689477,-0.3099264,1031.3602)">
      <g
         id="g4233">
        <path
           id="path4235"
           d="m -362.17919,225.60376 c -30.40872,-0.75965 -55.21278,-18.37783 -58.86702,-40.5187 l 119.67657,2.98971 c -4.74796,21.92987 -30.39937,38.28869 -60.80955,37.52899 z"
           style="fill:#010002"
           inkscape:connector-curvature="0" />
        <path
           id="path4237"
           d="m -219.68156,191.94413 -85.76924,-11.37311 -94.64158,-12.5496 -85.76924,-11.37311 3.41903,-25.7843 c 31.58341,-16.27488 86.92316,-66.167974 78.63857,-150.468571 5.51508,-41.583874 43.83533,-70.931307 85.41835,-65.417346 41.58301,5.513961 77.74403,45.322374 65.41734,85.41835339 C -278.22961,82.565836 -237.4897,143.87229 -216.26253,166.15982 Z"
           style="fill:#010002"
           inkscape:connector-curvature="0"
           sodipodi:nodetypes="ccccccsscc" />
        <circle
           style="opacity:1;fill:#000000;fill-opacity:1;stroke:none;stroke-width:1.5;stroke-linejoin:round;stroke-miterlimit:4;stroke-dasharray:none;stroke-dashoffset:0;stroke-opacity:1"
           id="path4155"
           cx="164.03883"
           cy="159.14534"
           r="149.29938" />
        <text
           xml:space="preserve"
           style="font-style:normal;font-weight:normal;font-size:308.9375px;line-height:125%;font-family:sans-serif;letter-spacing:0px;word-spacing:0px;fill:#ffffff;fill-opacity:1;stroke:none;stroke-width:1px;stroke-linecap:butt;stroke-linejoin:miter;stroke-opacity:1"
           x="99.858116"
           y="272.61285"
           id="text4157"
           sodipodi:linespacing="125%"><tspan
             sodipodi:role="line"
             id="tspan4159"
             x="99.858116"
             y="272.61285" /></text>
        <text
           xml:space="preserve"
           style="font-style:normal;font-weight:normal;font-size:343.58792114px;line-height:1000%;font-family:sans-serif;letter-spacing:0px;word-spacing:0px;fill:#ffffff;fill-opacity:1;stroke:none;stroke-width:1px;stroke-linecap:butt;stroke-linejoin:miter;stroke-opacity:1"
           x="79.300995"
           y="297.74481"
           id="text4158"
           sodipodi:linespacing="1000%"
           transform="scale(1.1938961,0.83759383)"><tspan
             sodipodi:role="line"
             id="tspan4160"
             x="79.300995"
             y="297.74481"
             style="font-style:italic;font-variant:normal;font-weight:bold;font-stretch:normal;font-family:FreeSerif;-inkscape-font-specification:'FreeSerif Bold Italic';fill:#ffffff">i</tspan></text>
      </g>
      <g
         id="g4239" />
      <g
         id="g4241" />
      <g
         id="g4243" />
      <g
         id="g4245" />
      <g
         id="g4247" />
      <g
         id="g4249" />
      <g
         id="g4251" />
      <g
         id="g4253" />
      <g
         id="g4255" />
      <g
         id="g4257" />
      <g
         id="g4259" />
      <g
         id="g4261" />
      <g
         id="g4263" />
      <g
         id="g4265" />
      <g
         id="g4267" />
    </g>
  </g>
</svg>
